…
# Row as a whole
validate_rows <- . %>% filter(vs == 1) %>%
  transmute(is_enough_sum = rowSums(.) >= 200)
mtcars_tbl %>% validate_rows()
## # A tibble: 14 x 1
##   is_enough_sum
##           <lgl>
## 1          TRUE
## 2          TRUE
## 3          TRUE
## 4          TRUE
## 5          TRUE
## # ... with 9 more rows

# Cell
validate_cells <- . %>%
  transmute_if(is.numeric, funs(is_out = z_score(.) > 1)) %>%
  slice(-(1:5))
mtcars_tbl %>% validate_cells()
## # A tibble: 27 x 11
##   mpg_is_out cyl_is_out disp_is_out hp_is_out drat_is_out wt_is_out
##        <lgl>      <lgl>       <lgl>     <lgl>       <lgl>     <lgl>
## 1      FALSE      FALSE       FALSE     FALSE        TRUE     FALSE
## 2      FALSE       TRUE        TRUE      TRUE       FALSE     FALSE
## 3      FALSE       TRUE       FALSE      TRUE       FALSE     FALSE
## 4      FALSE       TRUE       FALSE     FALSE       FALSE     FALSE
## 5      FALSE      FALSE       FALSE     FALSE       FALSE     FALSE
## # ... with 22 more rows, and 5 more variables: qsec_is_out <lgl>,
## #   vs_is_out <lgl>, am_is_out <lgl>, gear_is_out <lgl>, carb_is_out <lgl>
…
# Note that `id` starts from 6 as rows 1:5 were removed from validating
mtcars_tbl %>%
  expose(my_cell_packs, .remove_obeyers = FALSE) %>%
  get_exposure()
##   Exposure
## 
## Packs info:
## # A tibble: 1 x 4
##      name      type             fun remove_obeyers
##     <chr>     <chr>          <list>          <lgl>
## 1 my_cell cell_pack <S3: cell_pack>          FALSE
## 
## Tidy data validation report:
## # A tibble: 297 x 5
##      pack   rule   var    id value
##     <chr>  <chr> <chr> <int> <lgl>
## 1 my_cell is_out   mpg     6 FALSE
## 2 my_cell is_out   mpg     7 FALSE
## 3 my_cell is_out   mpg     8 FALSE
## 4 my_cell is_out   mpg     9 FALSE
## 5 my_cell is_out   mpg    10 FALSE
## # ... with 292 more rows
…
