…
hp <- hp_survey %>%
  # Extract numerical score
  rename(score_chr = score) %>%
  mutate(score = as.integer(gsub("[^0-9].*$", "", score_chr))) %>%
  # Add book names
  left_join(y = book_name_tbl, by = "book")

hp
## # A tibble: 657 x 5
##   person book  score_chr     score book_name                            
##    <int> <chr> <chr>         <int> <fct>                                
## 1      1 HP_6  5 - Excellent     5 Half-Blood Prince (#6)               
## 2      1 HP_7  5 - Excellent     5 Deathly Hallows (#7)                 
## 3      2 HP_1  3 - Good          3 Philosopher's (Sorcerer's) Stone (#1)
## 4      2 HP_4  5 - Excellent     5 Goblet of Fire (#4)                  
## 5      2 HP_5  2 - Fair          2 Order of the Phoenix (#5)            
## # ... with 652 more rows
…
Conversion

hp_survey presents results in long format.

hp_cr <- hp_survey %>%
  transmute(
    game = person, player = book,
    score = as.integer(gsub("[^0-9].*$", "", score))
  ) %>%
  as_longcr()

hp_cr
## # A longcr object:
## # A tibble: 657 x 3
##    game player score
##   <int> <chr>  <int>
## 1     1 HP_6       5
## 2     1 HP_7       5
## 3     2 HP_1       3
## 4     2 HP_4       5
## 5     2 HP_5       2
## # ... with 652 more rows

Here is the demonstration of conversion to wide format. It detects the maximum number of players in a game, which is 7, and assumes that data is missing in games with less number of players.

as_widecr(hp_cr)
## # A widecr object:
## # A tibble: 182 x 15
##    game player1 score1 player2 score2 player3 score3 player4 score4
##   <int> <chr>    <int> <chr>    <int> <chr>    <int> <chr>    <int>
## 1     1 HP_6         5 HP_7         5 <NA>        NA <NA>        NA
## 2     2 HP_1         3 HP_4         5 HP_5         2 HP_6         4
## 3     3 HP_1         3 HP_3         4 HP_5         1 <NA>        NA
## 4     4 HP_6         5 HP_7         5 <NA>        NA <NA>        NA
## 5     5 HP_4         4 HP_5         3 <NA>        NA <NA>        NA
## # ... with 177 more rows, and 6 more variables: player5 <chr>,
## #   score5 <int>, player6 <chr>, score6 <int>, player7 <chr>, score7 <int>

Head-to-Head

Functionality of comperes

Head-to-Head value is a summary statistic of direct confrontation between two players. It is assumed that this value can be computed based only on the players’ matchups (results for ordered pairs of players from one game). In other words, every game is converted into series of “subgames” between ordered pairs of players (including selfplay) which is stored as widecr object. After that, summary of item, defined by columns player1 and player2, is computed.

comperes has function get_matchups() for computing matchups:

get_matchups(hp_cr)
## # A widecr object:
## # A tibble: 2,697 x 5
##    game player1 score1 player2 score2
##   <int> <chr>    <int> <chr>    <int>
## 1     1 HP_6         5 HP_6         5
## 2     1 HP_6         5 HP_7         5
## 3     1 HP_7         5 HP_6         5
## 4     1 HP_7         5 HP_7         5
## 5     2 HP_1         3 HP_1         3
## # ... with 2,692 more rows
…
hp_cr_h2h
## # A long format of Head-to-Head values:
## # A tibble: 49 x 6
##   player1 player2     n num_wins mean_score mean_score_diff
##   <chr>   <chr>   <dbl>    <dbl>      <dbl>           <dbl>
## 1 HP_1    HP_1      88.     44.0       3.91          0.    
## 2 HP_1    HP_2      42.     29.5       3.88          0.500 
## 3 HP_1    HP_3      51.     19.5       3.92         -0.390 
## 4 HP_1    HP_4      48.     24.0       3.79          0.0400
## 5 HP_1    HP_5      42.     21.5       3.79          0.    
## # ... with 44 more rows
…
For more convenient usage, comperes has a list h2h_funs of some common Head-to-Head functions stored as expressions. To use them you need a little bit of rlang’s unquoting magic.

h2h_funs[1:3]
## $mean_score_diff
## mean(score1 - score2)
## 
## $mean_score_diff_pos
## max(mean(score1 - score2), 0)
## 
## $mean_score
## mean(score1)

hp_cr %>% h2h_long(!!! h2h_funs)
## # A long format of Head-to-Head values:
## # A tibble: 49 x 11
##   player1 player2 mean_score_diff mean_score_diff_pos mean_score
##   <chr>   <chr>             <dbl>               <dbl>      <dbl>
## 1 HP_1    HP_1             0.                  0.           3.91
## 2 HP_1    HP_2             0.500               0.500        3.88
## 3 HP_1    HP_3            -0.392               0.           3.92
## 4 HP_1    HP_4             0.0417              0.0417       3.79
## 5 HP_1    HP_5             0.                  0.           3.79
## # ... with 44 more rows, and 6 more variables: sum_score_diff <int>,
## #   sum_score_diff_pos <dbl>, sum_score <int>, num_wins <dbl>,
## #   num_wins2 <dbl>, num <int>
…
