…
Sometimes, there is also a need to compare actual values with their summaries across different grouping. For example, determine whether car’s number of carburetors (carb) is bigger than average value per different groupings: by number of cylinders cyl and V/S vs.

To simplify this task, comperes offers a join_item_summary() function for that: it computes item summary with summarise_item() and joins it (with dplyr::left_join()) to input data frame:

# Save (with rlang magic) expression for reused summary
carb_summary <- list(mean_carb = expr(mean(carb)))

# Create new columns with joined grouped summaries
mtcats_gear_summary <- mtcars_tbl %>%
  join_item_summary("cyl", !!! carb_summary, .prefix = "cyl__") %>%
  join_item_summary("vs",  !!! carb_summary, .prefix = "vs__")

print(mtcats_gear_summary, width = Inf)
## # A tibble: 32 x 6
##   car                 cyl    vs  carb cyl__mean_carb vs__mean_carb
##   <chr>             <dbl> <dbl> <dbl>          <dbl>         <dbl>
## 1 Mazda RX4            6.    0.    4.           3.43          3.61
## 2 Mazda RX4 Wag        6.    0.    4.           3.43          3.61
## 3 Datsun 710           4.    1.    1.           1.55          1.79
## 4 Hornet 4 Drive       6.    1.    1.           3.43          1.79
## 5 Hornet Sportabout    8.    0.    2.           3.50          3.61
## # ... with 27 more rows

# Compute comparisons
mtcats_gear_summary %>%
  mutate_at(vars(ends_with("mean_carb")), funs(carb > .)) %>%
  select(car, ends_with("mean_carb")) %>%
  rename_at(vars(-car), funs(gsub("__mean_carb$", "", .)))
## # A tibble: 32 x 3
##   car               cyl   vs   
##   <chr>             <lgl> <lgl>
## 1 Mazda RX4         TRUE  TRUE 
## 2 Mazda RX4 Wag     TRUE  TRUE 
## 3 Datsun 710        FALSE FALSE
## 4 Hornet 4 Drive    FALSE FALSE
## 5 Hornet Sportabout FALSE FALSE
## # ... with 27 more rows
…
# Convert to data frame (tibble in this case)
dist_tbl <- dist_mat %>%
  mat_to_long(row_key = "id_1", col_key = "id_2", value = "dist")
dist_tbl
## # A tibble: 1,024 x 3
##   id_1  id_2   dist
##   <chr> <chr> <dbl>
## 1 1     1      0.  
## 2 1     2      0.  
## 3 1     3      3.74
## 4 1     4      3.16
## 5 1     5      2.83
## # ... with 1,019 more rows
…
